{
  "class": [
    {
      "id": 1,
      "name": "Cây cảnh để bàn",
      "decription": "<div>Các loại&nbsp;<strong>cây cảnh để bàn</strong>&nbsp;với nhiều kiểu dáng và kích thước khác nhau, giúp thanh lọc không khí, tạo không gian sống và làm việc tràn đầy năng lượng.</div>"
    },
    {
      "id": 2,
      "name": "Cây thủy sinh",
      "decription": "<div><strong>Cây cảnh thủy sinh</strong>&nbsp;mang lại sự khác biệt cho người chơi nếu được đặt tại những vị trí phù hợp trên bàn làm việc, văn phòng hay nhà ở, tạo sự chú ý, tò mò cho khách viếng thăm.</div>"
    },
    {
      "id": 3,
      "name": "Cây cảnh nội thất",
      "decription": "<div class=\"decription\"><div><strong><span style=\"font-size: medium;\"><span style=\"font-family: Arial;\">Gợi ý 30+ cây cảnh nội thất được ưa chuộng nhất năm 2020.</span></span></strong></div><div><strong><span style=\"font-size: medium;\"><span style=\"font-family: Arial;\">Cây cảnh nội thất</span></span></strong><span style=\"font-size: medium;\"><span style=\"font-family: Arial;\"> không chỉ tăng tính thẩm mỹ cho không gian sống của bạn mà còn mang lại nhiều lợi ích khác. Theo NASA, cây cảnh giúp tăng 20% trí nhớ và 15% sự tập trung, chúng còn nâng cao hiệu suất trong công việc cũng như giảm căng thẳng, stress. Đồng thời chúng còn có tác dụng thanh lọc không khí mang lại không gian tươi mát, trong lành.</span></span></div><div><span style=\"font-size: medium;\"><span style=\"font-family: Arial;\">Cây cảnh nội thất thích hợp đặt tại nhiều vị trí như: phòng khách, phòng làm việc, tiền sảnh, showroom, cầu thang, sân thượng,... Đây cũng là món quà ý nghĩa dành tặng cho người thân, đối tác trong những dịp lễ lớn như: khai trương, tân gia, khánh thành,...</span></span></div></div>"
    }
  ],
  "products": [
    {
      "class": 1,
      "class_name": "cây cảnh để bàn",
      "id": 0,
      "img": "https://vuoncayviet.com/data/items/1218/cay-hoa-hai-duong.jpg",
      "name": "Cây hải đường",
      "size": "NT058: 35 x 50cm",
      "price": "85,000 đ",
      "status": "https://vuoncayviet.com/img/in_stock.jpg",
      "introduce": "thể hiện cho sự tinh thiết, thanh cao may mắn và tài lộc nên rất nhiều gia đình lựa chọn hoa hải đường trong dịp tết để trưng bày.",
      "detail": "<span><h2><strong><span style=\"font-size: medium; font-family: 'times new roman', times;\">Giới thiệu Cây hải đường</span></strong></h2><ul><li><span style=\"font-size: medium; font-family: 'times new roman', times;\">Tên thường gọi:&nbsp;cây hoa hải đường</span></li></ul><ul><li><span style=\"font-size: medium; font-family: 'times new roman', times;\">Tên gọi khác: hải đường đỏ, hay cây hải đường</span></li></ul><ul><li><span style=\"font-size: medium; font-family: 'times new roman', times;\">Tên khoa học:&nbsp;Malus spectabilis Borkh</span></li></ul><ul><li><span style=\"font-size: medium; font-family: 'times new roman', times;\">Họ: &nbsp;Theaceae</span></li></ul><ul><li><span style=\"font-size: medium; font-family: 'times new roman', times;\">Nguồn gốc xuất xứ: tại Trung Quốc</span></li></ul><h2><strong><span style=\"font-size: medium; font-family: 'times new roman', times;\">Đặc điểm</span></strong></h2><ul><li><span style=\"font-size: medium; font-family: 'times new roman', times;\">Thân: thuộc cây thân bụi cao 3 – 4m, cành non có màu nâu nhạt và nhẵn.</span></li><li><span style=\"font-size: medium; font-family: 'times new roman', times;\">Lá: có xuống ngắn, không lông phiến lá to thuôn hình bầu dục, dày màu nâu ở mặt trên, xanh ở mặt dưới, mép lá có răng cưa nhọn, gân chính nổi rõ.</span></li><li><span style=\"font-size: medium; font-family: 'times new roman', times;\">Hoa : có màu đỏ, cánh hoa gồm 8 – 12 cánh hình trứng rộng đỉnh tròn.</span></li><li><span style=\"font-size: medium; font-family: 'times new roman', times;\">Quả: hình cầu, nhẵn khí thành 3 rãnh 3 ô.</span></li></ul><h2><strong><span style=\"font-size: medium; font-family: 'times new roman', times;\">Ý nghĩa phong thủy</span></strong></h2><ul><li><span style=\"font-size: medium; font-family: 'times new roman', times;\">Là loại hoa quý, không chỉ đẹp với màu sắc thắm đỏ rực rỡ vào độ xuân sanng mà hoa hải đường còn giàu ý nghĩa ngay từ tên gọi. Theo tiếng Hán, chữ đường còn hàm ý nhà ngôi nhà lớn vì vậy cây hoa hải đường là loài hoa phong thủy tượng trưng cho sự phú quý viên mãn, cuộc sống sum vầy, anh em hòa hợp, tình bạn keo sơn gắn bó. </span></li><li><span style=\"font-size: medium; font-family: 'times new roman', times;\">Hải đường còn tượng trưng cho mùa xuân nên còn mang đến may mắn, làm ăn tấn tới.</span></li></ul><h2><strong><span style=\"font-size: medium; font-family: 'times new roman', times;\">Công dụng</span></strong></h2><ul><li><span style=\"font-size: medium; font-family: 'times new roman', times;\">Làm quà tặng nhân những dịp lễ tết quan trọng đặc biệt là năm mới hoặc mừng tân gia. &nbsp;Người xưa quan niệm tặng tranh hoặc chậu hoa hải đường là lễ vật quý chúc gia chủ đầy ắp phú quý vinh hoa, thăng quan, tiến chức.</span></li><li><span style=\"font-size: medium; font-family: 'times new roman', times;\">Người ta còn thường mua một chậu hoa hải đường trưng phòng khách, phòng thờ, trước cửa nhà hoặc cắm lọ lục bình trên bàn thờ để đón xuân sang với mong muốn một năm đỏ đắn, sung túc.</span></li><li><span style=\"font-size: medium; font-family: 'times new roman', times;\">Cây hoa hải đường còn được trồng vườn, trồng bồn trước nhà tô điểm cho ngôi nhà thêm sinh động.</span></li></ul><h2><strong><span style=\"font-size: medium; font-family: 'times new roman', times;\">Cách trồng</span></strong></h2><ul><li><span style=\"font-size: medium; font-family: 'times new roman', times;\">Ánh sáng: Cây hoa hải đường ưa ánh sáng bán phần, nên trồng nơi có ánh sáng khuếch tán khoảng 50-60%. Cây trồng sau 3-4 năm sẽ cho nhiều hoa đẹp.</span></li><li><span style=\"font-size: medium; font-family: 'times new roman', times;\">Nhiệt độ: cây hoa hải đường ưa mát mẻ, nhiệt độ trung bình ưa thích khoảng 18-27oC.</span></li><li><span style=\"font-size: medium; font-family: 'times new roman', times;\">Độ ẩm: Cây ưa ẩm trung bình</span></li><li><span style=\"font-size: medium; font-family: 'times new roman', times;\">Đất trồng: Cây hoa hải đường ưa đất tơi xốp, thoáng, giàu dinh dưỡng, nên bón lót bằng phân hữu cơ để dự trữ dinh dưỡng nuôi cây.</span></li><li><span style=\"font-size: medium; font-family: 'times new roman', times;\">Tưới nước: cây ưa nước trung bình, lượng nước tưới vừa phải. Nên tưới khi thấy đất trên mặt chậu hơi se khô.</span></li><li><span style=\"font-size: medium; font-family: 'times new roman', times;\">Bón phân: khi cây trong giai đoạn trưởng thành từ còn nhỏ đến 1m, nên bón phân mỗi tháng/lần bằng nước bể phốt pha loãng với 3-4 phần nước lã.</span></li></ul></span>"
    },
    {
      "class": 2,
      "class_name": "cây thủy sinh",
      "id": 1,
      "img": "https://vuoncayviet.com/data/items/1216/thiet-moc-lan-vcv.jpg",
      "name": "Cây Thiết Mộc Lan nội thất",
      "price": "650,000 đ",
      "size": "NT056: 130 x 50cm; chậu sứ trắng có hoa văn.",
      "status": "https://vuoncayviet.com/img/in_stock.jpg",
      "introduce": "được sử dụng nhiều cho văn phòng, phòng khách, phòng làm việc để mang lại may mắn tài vận cho gia chủ. ",
      "detail": "<span><h2><span style=\"font-family: 'times new roman', times; font-size: medium;\">Giới th<strong>iệu&nbsp;Cây Thiết Mộc Lan nội thất</strong></span></h2><p><span style=\"font-family: 'times new roman', times; font-size: medium;\">Tên gọi khác:&nbsp;&nbsp;Cây Phát Tài, cây Phất Dụ Thơm.</span></p><p><span style=\"font-family: 'times new roman', times; font-size: medium;\">Tên khoa học:&nbsp;Dracaena fragrans</span></p><p><span style=\"font-family: 'times new roman', times; font-size: medium;\">Họ:&nbsp;Dracaenaceae&nbsp;</span></p><p><span style=\"font-family: 'times new roman', times; font-size: medium;\">Xuất xứ:&nbsp;Tây Phi</span></p><h2><strong><span style=\"font-family: 'times new roman', times; font-size: medium;\">Đặc điểm:</span></strong></h2><ul><li><span style=\"font-family: 'times new roman', times; font-size: medium;\">Lá của cây thiết mộc lan mọc thành hình nơ, bóng và có màu sẫm, phiến lá có sọc rộng và nhạt màu hơn đồng thời ngả vàng ở phần trung tâm. Lá cây có thể dài đến 1m và rộng 10 cm.&nbsp;</span></li></ul><ul><li><span style=\"font-family: 'times new roman', times; font-size: medium;\">Hoa của cây thiết mộc lan thường mọc thành chùm màu trắng và có mùi rất thơm, nhất là vào ban đêm.&nbsp;</span></li></ul><h2><strong><span style=\"font-family: 'times new roman', times; font-size: medium;\">Ý nghĩa phong thủy:</span></strong></h2><ul><li><span style=\"font-family: 'times new roman', times; font-size: medium;\">Mang đến may mắn cho gia chủ về tài lộc và tiền bạc, nhất là khi cây ra hoa, bởi đó là lúc báo hiệu tiền tài sắp đến với bạn.</span></li><li><span style=\"font-family: 'times new roman', times; font-size: medium;\">Nếu đặt cây theo hướng Đông hoặc Đông Nam của ngôi nhà, cây sẽ đại diện cho hành Mộc, có ý nghĩa đem đến may mắn cho gia chủ.</span></li></ul><h2><strong><span style=\"font-family: 'times new roman', times; font-size: medium;\">Công dụng:</span></strong></h2><p><span style=\"font-family: 'times new roman', times; font-size: medium;\">- Làm cây cảnh văn phòng, cây nội thất, trồng trong nhà phong thủy.</span></p><p><span style=\"font-family: 'times new roman', times; font-size: medium;\">- Cây có thể lọc bỏ các độc tố gây ô nhiễm không khí, hấp thụ monooxide de carbone rất hiệu quả. Ngoài ra cây còn hút được cả benzene, toluene, formallhelyde, mang đến nguồn không khí trong lành và duy trì sức khỏe cho các thành viên trong nhà.</span></p><h2><strong><span style=\"font-family: 'times new roman', times; font-size: medium;\">Cách trồng:</span></strong></h2><ul><li><span style=\"font-family: 'times new roman', times; font-size: medium;\">Ánh sáng: nên trưng cây phát tài ở gần cửa kính,cửa sổ, sảnh lớn hay hành lang để có ánh sáng khuếch tán vừa đủ.</span></li><li><span style=\"font-family: 'times new roman', times; font-size: medium;\">Nước:&nbsp;thiết mộc lan là loài cây thân gỗ nên nhu cầu nước tưới trung bình,lại để trong nhà nên chỉ cần tưới vừa phải cho cây. Hàng tuần tùy điều kiện thời tiết, bạn tưới 2-3 lần đều quanh gốc với lượng nước từ 0,5-1 lít tùy kích thước chậu.Khi thấy mặt chậu se khô hãy tưới. Cây thiết mộc lan ghép thì tưới lượng nước ít hơn thiết mộc lan gốc. Thường xuyên chú ý quan sát gốc để tránh cây bị thối gốc.</span></li><li><span style=\"font-family: 'times new roman', times; font-size: medium;\">Phân bón:&nbsp;Hàng tháng bạn nên bón phân nhả chậ để kích thích rễ phát triển, mỗi chậu chọc khoảng 10-15 lỗ tùy kích thước chậu. Mỗi lỗ từ 5-7 hạt , giữa gốc và thành chậu. Độ sâu mỗi lỗ khoảng 1cm, sau đó lấp đất lên để phân không bị bốc hơi rồi tưới nước bình thường. Khi cây phát tài bị xấu yếu, ta hòa loãng phân theo tỷ lệ 8:1 nước:phân để tưới vào gốc.</span></li><li><span style=\"font-family: 'times new roman', times; font-size: medium;\">Sâu bệnh: Cây phất dụ thường ít bị sâu bệnh gây hại</span></li></ul></span>"
    },
    {
      "class": 3,
      "class_name": "cây cảnh nội thất",
      "id": 2,
      "img": "https://vuoncayviet.com/data/items/1204/truc-bach-hop-vcv.jpg",
      "name": "Cây Trúc Bách Hợp",
      "price": "850,000 đ",
      "size": "NT055: 120x 60cm; chậu sứ trắng.",
      "status": "https://vuoncayviet.com/img/out_stock.jpg",
      "introduce": "được sử dụng nhiều cho văn phòng, phòng khách, phòng làm việc để mang lại may mắn tài vận cho gia chủ. ",
      "detail": "<span><h2><strong><span style=\"font-family: 'times new roman', times; font-size: medium;\">Giới thiệu&nbsp;Cây Trúc Bách Hợp</span></strong></h2><p><span style=\"font-family: 'times new roman', times; font-size: medium;\">Tên gọi khác:&nbsp;Phất dụ trúc</span></p><p><span style=\"font-family: 'times new roman', times; font-size: medium;\">Tên khoa học:&nbsp;Dracaena godseffiana Hort</span></p><p><span style=\"font-family: 'times new roman', times; font-size: medium;\">Họ:&nbsp;Dracaenaceae</span></p><p><span style=\"font-family: 'times new roman', times; font-size: medium;\">Nguồn gốc:&nbsp;Bắc Ấn, Ceylon</span></p><h2><strong><span style=\"font-family: 'times new roman', times; font-size: medium;\">Đặc điểm:</span></strong></h2><ul><li><span style=\"font-family: 'times new roman', times; font-size: medium;\">Cây bụi, phân nhánh nhiều, thân có sẹo do lá rụng để lại.</span></li><li><span style=\"font-family: 'times new roman', times; font-size: medium;\">Lá xếp hoa thị, dạng bầu dục thuôn nhọn ở đầu, gốc kéo bẹ ôm thân, mép nguyên, màu xanh bóng với có dải màu vàng tươi kéo dài từ gốc tới ngọn.</span></li><li><span style=\"font-family: 'times new roman', times; font-size: medium;\">Cây mọc thành bụi nhỏ, cao&nbsp;<em>0.5-2m</em>, thân mảnh, phân nhánh nhỏ.</span></li><li><span style=\"font-family: 'times new roman', times; font-size: medium;\">Lá thuôn bầu dục thuôn nhọn ở đầu, gốc kéo bẹ ôm thân, xếp đôi 1 hoặc 3 chiếc ở mỗi đốt hình hoa thị, màu xanh đậm bóng, có các đốm vàng hay trắng không đều.</span></li></ul><h2><strong><span style=\"font-family: 'times new roman', times; font-size: medium;\">Ý nghĩa phong thủy:</span></strong></h2><ul><li><span style=\"font-family: 'times new roman', times; font-size: medium;\">Cây&nbsp;đem lại tốt lành cho cả gia đình.</span></li><li><span style=\"font-family: 'times new roman', times; font-size: medium;\">Một món quà quý giá thay lời chúc may mắn bình an đến cho gia chủ.</span></li></ul><h2><strong><span style=\"font-family: 'times new roman', times; font-size: medium;\">Công dụng:</span></strong></h2><ul><li><span style=\"font-family: 'times new roman', times; font-size: medium;\">Thích hợp làm cây trang trí nội thất, cây văn phòng, nhu cầu nước trung bình.&nbsp;</span></li><li><span style=\"font-family: 'times new roman', times; font-size: medium;\">Phù hợp để ở bàn làm việc, trang trí phòng khách, bàn làm việc, cửa sổ, kệ sách…làm đẹp không gian.&nbsp;</span></li></ul><h2><strong><span style=\"font-family: 'times new roman', times; font-size: medium;\">Cách trồng:</span></strong></h2><ul><li><span style=\"font-family: 'times new roman', times; font-size: medium;\">Nước:&nbsp;Nhu cầu nước trung bình, tưới 1-2 lần/ tuần. Nên tưới đến khi nào đất có độ ẩm thì ngưng, tránh để ngập úng.</span></li><li><span style=\"font-family: 'times new roman', times; font-size: medium;\">Nhiệt độ:&nbsp;Cây phát triển tốt ở nhiệt đồ từ 20 đến 26 độ C</span></li><li><span style=\"font-family: 'times new roman', times; font-size: medium;\">Độ ẩm:&nbsp;Cao</span></li><li><span style=\"font-family: 'times new roman', times; font-size: medium;\">Ánh sáng:&nbsp;Hàng tuần cho cây tiếp xúc với ánh sáng dịu khoảng 1-2 giờ.</span></li><li><span style=\"font-family: 'times new roman', times; font-size: medium;\">&nbsp;dinh dưỡng: Phân bón cho cây Trúc Bách Hợp là phân chứa nhiều dinh dưỡng như N,P,K đồng thời cũng cung cấp các nguyên tố vi lượng Cu, Zn, Cr, Mg, Fe, bo…</span></li><li><span style=\"font-family: 'times new roman', times; font-size: medium;\">Bón phân định kỳ 1-2 tháng/lần, có thể dùng Compomix hoặc NPK 20-10-10.</span></li></ul></span>"
    },
    {
      "class": 3,
      "class_name": "cây cảnh nội thất",
      "id": 3,
      "img": "https://vuoncayviet.com/data/items/1157/cay-luoi-ho-thai-vang.jpg",
      "name": "Cây Lưỡi Hổ Thái Vàng",
      "price": "350,000 đ",
      "size": "NT048: 32x48cm; Chậu sứ trắng hoa văn",
      "status": "https://vuoncayviet.com/img/in_stock.jpg",
      "introduce": "có chức năng hấp thụ độc tố, khí carbonic, bức xạ điện từ,… rất thích hợp làm cây canh nội thất.",
      "detail": "<span><p style=\"text-align: justify;\"><strong>Giới thiệu cây Lưỡi Hổ Thái Vàng</strong></p><p style=\"text-align: justify;\">Tên khác: cây lưỡi hổ hoàng kim, lưỡi hổ vàng</p><p style=\"text-align: justify;\"><strong>Đặc điểm cây Lưỡi Hổ Thái Vàng</strong></p><ul style=\"text-align: justify;\"><li>Cây trong bầu 1 thân. Có thể cao trên 30 cm. Lá mọc thẳng, cứng cáp, dạng thuyền. Lá vươn lên tỏa ra nhiều phía.</li><li>Mặt trên lá chủ yếu màu vàng, có ít sọc xanh, mặt dưới xanh rằn.</li><li>Sống lâu năm, dễ chăm sóc.</li></ul><p style=\"text-align: justify;\"><strong>Ý nghĩa phong thủy</strong></p><ul style=\"text-align: justify;\"><li>Tượng trưng cho sự vững trãi, an cư lạc nghiệp, xua đuổi tà ma và xui xẻo.</li><li>Cây hợp với người mệnh Thổ</li></ul><p style=\"text-align: justify;\"><strong>Công dụng</strong></p><ul style=\"text-align: justify;\"><li>Cây Lưỡi Hổ Thái Vàng có chức năng hấp thụ độc tố, khí carbonic, bức xạ điện từ,…</li><li>Thích hợp trồng chậu trang trí nội – ngoại thất, trồng thành bụi hoặc luống ngoài đất</li></ul><p style=\"text-align: justify;\"><strong>Cách chăm sóc</strong></p><ul style=\"text-align: justify;\"><li>Ánh sáng: Cây ưa sáng, chịu nhiệt tốt, nên để ở nơi có nhiều ánh sáng (tránh ánh sáng gay gắt trực tiếp từ mặt trời).</li><li>Nước: Tưới nước 2 lần/tuần.</li><li>Đất: Cây không cần qúa nhiều dinh dưỡng. Đất thoáng ẩm là được. Có thể bón phân 2 tháng/lần cho cây.</li></ul></span>"
    },
    {
      "class": 3,
      "class_name": "cây cảnh nội thất",
      "id": 4,
      "img": "https://vuoncayviet.com/data/items/1156/cay-da-bup-do.jpg",
      "name": "Cây Đa Búp Đỏ",
      "price": "200,000 đ",
      "size": "DB101: 18x28; chậu sứ trắng hoa văn",
      "status": "https://vuoncayviet.com/img/in_stock.jpg",
      "introduce": "là biểu tượng của sức sống dẻo dai, sự trường tồn, biểu tượng thần quyền và tâm linh của con người.",
      "detail": "<span><p style=\"text-align: justify;\"><strong>Giới thiệu cây Đa Búp Đỏ</strong></p><ul style=\"text-align: justify;\"><li>Tên gọi khác: Đa cao su, đa dai.</li><li>Tên khoa học: Ficus elastica</li><li>Họ: Moraceae.</li><li>Nguồn gốc: ở vùng đông bắc Ấn Độ, phía nam Indonesia</li></ul><p style=\"text-align: justify;\"><strong>Đặc điểm</strong></p><ul style=\"text-align: justify;\"><li>Cây trồng chậu có kích thước khoảng từ 1 – 3 m. Thân có nhiều rễ phụ, rễ khỏe và có thế đẹp.</li><li>Các cành lá phát triển ra từ các rễ khí, rễ trụ. Làm cho cây thêm vững chắc, bám sâu vào đất.</li><li>Lá hình ovan, bóng mịn. Những lá non phát triển trong một lớp búp, thường gọi lá búp đa, và khi lá phát triển ra thì lớp bọc đó rụng đi.</li></ul><p style=\"text-align: justify;\"><strong>Ý nghĩa phong thủy</strong></p><ul style=\"text-align: justify;\"><li>Biểu tượng của sức sống dẻo dai, sự trường tồn, biểu tượng thần quyền và tâm linh của con người.</li><li>Trong phong thủy, cây đa búp đỏ râm mát có sức bao bọc có tác dụng che chở, đem đến sự bình an cho gia đình.</li><li>Phù hợp với người mệnh Hỏa và Thổ</li></ul><p style=\"text-align: justify;\"><strong>Công dụng</strong></p><ul style=\"text-align: justify;\"><li>Cây có hình dáng đẹp, màu sắc độc đáo thích hợp trưng bày làm cảnh, tạo không gian đẹp.</li><li>Có khả năng hút được khói thuốc lá, các khí độc khác như: formaldehyde, carbon monoxide, hydrogen fluoride và một số chất gây ung thư ở thể hơi.</li></ul><p style=\"text-align: justify;\"><strong>Cách chăm sóc</strong></p><ul style=\"text-align: justify;\"><li>Ánh sáng: Tránh để cây trong phòng tối quá lâu. Nên thỉnh thoảng mang cây ra gần cửa sổ để cây được quang hợp. Quang hợp tốt sẽ làm tăng sắc tố đỏ đẹp mắt của cây.</li><li>Nhiệt độ: cây chịu nóng tốt, chịu rét kém. Có thể đặt trong phòng làm việc có điều hòa.</li><li>Đất: Đất thịt, nhiều mùn, giàu dinh dưỡng, các khoáng chất vi sinh và thoát nước tốt.</li><li>Tưới nước: mỗi tuần chỉ tưới 1 lần hoặc khi nào bạn thấy đất trên mặt chậu khô thì tưới. Tránh tưới quá nhiều dẫn đến úng nước.</li></ul></span>"
    },
    {
      "class": 1,
      "class_name": "cây cảnh để bàn",
      "id": 5,
      "img": "https://vuoncayviet.com/data/items/1151/cay-sung-my-vuon-cay-viet.jpg",
      "name": "Cây Sung Mỹ",
      "price": "250,000 đ",
      "size": "AT004: 22x45 cm, Chậu sứ sọc lục giác",
      "status": "https://vuoncayviet.com/img/in_stock.jpg",
      "introduce": "ra trái quanh năm, trái ngọt. Cây có sức sống tốt tượng trưng cho sự sung túc và tiền tài.",
      "detail": "<span><p><strong>Giới thiệu cây Sung Mỹ</strong></p><ul><li>Tên thường gọi: Sung Mỹ</li><li>Tên khác: Sung Ngọt</li><li>Xuất xứ: Trung Á</li></ul><p><strong>Đặc điểm:</strong></p><ul><li>Cây cho ra quả quanh năm và cho thu hoạch chỉ sau 6-8 tháng trồng</li><li>Quả sung Mỹ mọc thành chùm và rãi đều quanh thân, quả khi chín có màu vàng sẫm cho đến tím thẫm.</li><li>Quả sung Mỹ thơm có vị ngọt</li><li>Lá chia thành 3 đến 5 thùy</li></ul><p><strong>Ý nghĩa phong thủy</strong></p><ul><li>Tượng trưng cho sự sung túc, viên mãn, tròn đầy</li><li>Thu hút tiền tài, mang lại sự sung túc.</li></ul><p><strong>Công dụng:</strong></p><ul><li>Thích hợp với trồng bonsai, làm cây cảnh, trưng bày trong vườn,…</li><li>Quả Sung Mỹ có giá trị dinh dưỡng cao giúp bổ sung dưỡng chất cho cơ thể.</li><li>Quả Sung Mỹ còn được dùng làm thuốc chữa bệnh: giúp giảm chứng cao huyết áp, tăng hàm lượng canxi, giúp sinh tinh ở nam giới.</li></ul><p><strong>Cách chăm sóc:</strong></p><ul><li>Nước: Thường xuyên tưới nước cho cây, nhưng tránh để đất quá ẩm ướt.</li><li>Ánh sáng: Cây Sung Mỹ ưa sáng vừa, không quá gay gắt. Có thể trồng ở dưới tán cây khác.</li><li>Bón phân: Sau khi trồng 2 tháng sẽ tiến hành bổ sung dinh dưỡng cho cây phát triển. Có thể dùng phân hữu cơ hoặc các loại phân chuyên dụng cho cây để giúp cây sinh trưởng tốt.</li></ul></span>"
    },
    {
      "class": 1,
      "class_name": "cây cảnh để bàn",
      "id": 6,
      "img": "https://vuoncayviet.com/data/items/1128/ngu-gia-bi-bonsai-vuoncayviet.jpg",
      "name": "Cây Ngũ Gia Bì Bonsai",
      "price": "240,000 đ",
      "size": "DB097: 25x25cm; Chậu sứ xanh chữ nhật, có 4 đế",
      "status": "https://vuoncayviet.com/img/in_stock.jpg",
      "introduce": "là cây cảnh phong thủy độc đáo, rất hợp trang trí bàn làm việc, nhất là bàn của lãnh đạo, sếp. Cây hợp mệnh Mộc và Hỏa.",
      "detail": "<span><p><strong>Giới thiệu cây Ngũ Gia Bì bonsai</strong></p><ul><li>Tên thường gọi: Cây Ngũ Gia Bì, Ngũ Gia Bì Xanh bonsai</li><li>Tên gọi khác: cây Chân Chim Bảy Lá, cây Sâm Non, cây Lằng</li><li>Tên khoa học: Scheffera Octophylla</li></ul><p><strong>Đặc điểm</strong></p><ul><li>Cây có thân nhỏ, vỏ xám, cứng cáp, có thể tạo hình nghệ thuật</li><li>Mỗi cành nhánh có từ 4-8 lá chụm lại ở cuống, xòe ra như hình chân chim</li><li>Lá xanh mướt, bóng, đầu thuôn, có mùi thơm dịu nhẹ</li></ul><p><strong>Ý nghĩa phong thuỷ</strong></p><ul><li>Cây Ngũ Gia Bì Xanh bonsai&nbsp;<span>giúp gắn kết các thành viên được hòa thuận, gia đình thêm êm ấm hơn</span></li><li><span><span>Là loại cây có thể giúp người trồng phát triển sự nghiệp vững mạnh, củng cố được tiền bạc, ổn định tài vận</span></span></li><li><span><span>Thích hợp dành cho người mệnh Mộc, Hỏa và tuổi Dần</span></span></li></ul><p><strong>Công dụng</strong></p><ul><li>Trồng trang trí bàn làm việc, quầy thu ngân, kệ sách, kệ tivi rất mát mắt và sinh động</li><li>Mùi hương dịu nhẹ có thể xua đuổi được muỗi ra khỏi không gian trồng</li><li>Trong Đông y, cây Ngũ Gia Bì bonsai&nbsp;<span>có thể được sử dụng làm thuốc trị đau bụng, chống suy nhược thần kinh, mệt mỏi, giúp an thần, tăng trí nhớ, kháng viêm, giảm đau, hạ sốt...</span></li></ul><p><strong>Cách chăm sóc</strong></p><ul><li>Ánh sáng: cây ưa sáng, cần phơi nắng nhẹ 2 lần/tuần trước 11h, tránh nắng gắt buổi trưa</li><li>Nhiệt độ: sinh trưởng tốt trong khoảng 20°C – 30°C, dưới 5 độ C và trên 30 độ C, cây có thể chết</li><li>Đất trồng: đất tơi, xốp, thoát nước tốt. Nên trộn hỗn hợp xơ dừa, tro, phân chuồng hoại mục để trồng</li><li>Nước: cách 3 ngày tưới cây 1 lần, giữ đủ độ ẩm, tránh ngập úng</li><li>Bón phân: bổ sung phân vi sinh, phân chuồng hoại mục thường xuyên mỗi tháng</li></ul></span>"
    },
    {
      "class": 3,
      "class_name": "cây cảnh nội thất",
      "id": 7,
      "img": "https://vuoncayviet.com/data/items/1037/cay-luoi-ho-thai-1.JPG",
      "name": "Cây Lưỡi Hổ Thái",
      "price": "180,000 đ",
      "size": "",
      "status": "https://vuoncayviet.com/img/in_stock.jpg",
      "introduce": "mang ý nghĩa như lời cầu chúc may mắn đến bạn bè, đối tác, tân gia được an cư lạc nghiệp, năm mới tài lộc dồi dào.",
      "detail": ""
    },
    {
      "class": 3,
      "class_name": "cây cảnh nội thất",
      "id": 8,
      "img": "https://vuoncayviet.com/data/items/1023/cay-dai-phu-gia-nt-012.JPG",
      "name": "Cây Đại Phú Gia nội thất",
      "price": "700,000 đ"
    },
    {
      "class": 3,
      "class_name": "cây cảnh nội thất",
      "id": 9,
      "img": "https://vuoncayviet.com/data/items/1020/cay-ngu-gia-bi-cam-thach-nt022.JPG",
      "name": "Cây Ngũ Gia Bì Cẩm Thạch nội thất",
      "price": "550,000 đ"
    },
    {
      "class": 2,
      "class_name": "cây thủy sinh",
      "id": 10,
      "img": "https://vuoncayviet.com/data/items/1011/ngu-gia-bi.jpg",
      "name": "Cây Ngũ Gia Bì Xanh thủy sinh",
      "price": "200,000 đ"
    },
    {
      "class": 2,
      "class_name": "cây thủy sinh",
      "id": 11,
      "img": "https://vuoncayviet.com/data/items/1010/luoi-ho-thai-1.jpg",
      "name": "Cây Lưỡi Hổ Thái thủy sinh",
      "price": "200,000 đ"
    },
    {
      "class": 3,
      "class_name": "cây cảnh nội thất",
      "id": 12,
      "img": "https://vuoncayviet.com/data/items/993/cay-bang-singapore.jpg",
      "name": "Cây Bàng Singapore",
      "price": "200,000 đ"
    },
    {
      "class": 1,
      "class_name": "cây cảnh để bàn",
      "id": 13,
      "img": "https://vuoncayviet.com/data/items/963/cay-phu-quy.jpg",
      "name": "Cây Phú Quý",
      "price": "200,000 đ"
    },
    {
      "class": 2,
      "class_name": "cây thủy sinh",
      "id": 14,
      "img": "https://vuoncayviet.com/data/items/953/cay-van-loc-ts011-vcv.jpg",
      "name": "Cây Vạn Lộc thủy sinh",
      "price": "200,000 đ"
    }
  ],
  "link": {
    "first": "http://localhost:3000/products?_page=1&_limit=10",
    "last": "http://localhost:3000/products?_page=3&_limit=10",
    "prev": null,
    "next": "http://localhost:3000/products?_page=2"
  },
  "meta": {
    "product_page": 1,
    "from": 1,
    "last_page": 3,
    "path": "http://localhost:3000/products",
    "per_page": 10,
    "to": 10,
    "total": 28
  }
}